[2018-02-14T17:02:18.773-0500] [] [INFO] [NCLS-GFLAUNCHER-00005] [javax.enterprise.launcher] [tid: _ThreadID=1 _ThreadName=main] [timeMillis: 1518645738773] [levelValue: 800] [[
  JVM invocation command line:
/usr/java/jdk1.8.0_151/bin/java
-cp
/usr/local/glassfish4/glassfish/modules/glassfish.jar
-XX:+UnlockDiagnosticVMOptions
-XX:NewRatio=2
-XX:MaxPermSize=192m
-Xms3024M
-Xmx3506m
-server
-javaagent:/usr/local/glassfish4/glassfish/lib/monitor/flashlight-agent.jar
-Djavax.xml.accessExternalSchema=all
-Djavax.net.ssl.trustStore=/usr/local/glassfish4/glassfish/domains/domain1/config/cacerts.jks
-Djdk.corba.allowOutputStreamSubclass=true
-Dfelix.fileinstall.dir=/usr/local/glassfish4/glassfish/modules/autostart/
-Dorg.glassfish.additionalOSGiBundlesToStart=org.apache.felix.shell,org.apache.felix.gogo.runtime,org.apache.felix.gogo.shell,org.apache.felix.gogo.command,org.apache.felix.shell.remote,org.apache.felix.fileinstall
-Dcom.sun.aas.installRoot=/usr/local/glassfish4/glassfish
-Dfelix.fileinstall.poll=5000
-Djava.security.policy=/usr/local/glassfish4/glassfish/domains/domain1/config/server.policy
-Djava.endorsed.dirs=/usr/local/glassfish4/glassfish/modules/endorsed:/usr/local/glassfish4/glassfish/lib/endorsed
-Dfelix.fileinstall.bundles.startTransient=true
-Dosgi.shell.telnet.maxconn=1
-Dfelix.fileinstall.log.level=2
-Dcom.sun.enterprise.config.config_environment_factory_class=com.sun.enterprise.config.serverbeans.AppserverConfigEnvironmentFactory
-Djavax.net.ssl.keyStore=/usr/local/glassfish4/glassfish/domains/domain1/config/keystore.jks
-Djava.security.auth.login.config=/usr/local/glassfish4/glassfish/domains/domain1/config/login.conf
-Dfelix.fileinstall.disableConfigSave=false
-Dfelix.fileinstall.bundles.new.start=true
-Dcom.sun.aas.instanceRoot=/usr/local/glassfish4/glassfish/domains/domain1
-Dosgi.shell.telnet.port=6666
-Dgosh.args=--nointeractive
-Dcom.sun.enterprise.security.httpsOutboundKeyAlias=s1as
-Dosgi.shell.telnet.ip=127.0.0.1
-DANTLR_USE_DIRECT_CLASS_LOADING=true
-Dcom.ctc.wstx.returnNullForDefaultNamespace=true
-Djava.awt.headless=true
-Djava.ext.dirs=/usr/java/jdk1.8.0_151/lib/ext:/usr/java/jdk1.8.0_151/jre/lib/ext:/usr/local/glassfish4/glassfish/domains/domain1/lib/ext
-Djdbc.drivers=org.apache.derby.jdbc.ClientDriver
-Djava.library.path=/usr/local/glassfish4/glassfish/lib:/usr/java/packages/lib/amd64:/usr/lib64:/lib64:/lib:/usr/lib
com.sun.enterprise.glassfish.bootstrap.ASMain
-upgrade
false
-domaindir
/usr/local/glassfish4/glassfish/domains/domain1
-read-stdin
true
-asadmin-args
--host,,,localhost,,,--port,,,4848,,,--secure=false,,,--terse=false,,,--echo=false,,,--interactive=false,,,start-domain,,,--verbose=false,,,--watchdog=false,,,--debug=false,,,--domaindir,,,/usr/local/glassfish4/glassfish/domains,,,domain1
-domainname
domain1
-instancename
server
-type
DAS
-verbose
false
-asadmin-classpath
/usr/local/glassfish4/glassfish/modules/admin-cli.jar
-debug
false
-asadmin-classname
com.sun.enterprise.admin.cli.AdminMain]]

[2018-05-22T13:16:41.251-0500] [] [INFO] [NCLS-GFLAUNCHER-00005] [javax.enterprise.launcher] [tid: _ThreadID=1 _ThreadName=main] [timeMillis: 1527013001251] [levelValue: 800] [[
  JVM invocation command line:
/usr/java/jdk1.8.0_151/bin/java
-cp
/usr/local/glassfish4/glassfish/modules/glassfish.jar
-XX:+UnlockDiagnosticVMOptions
-XX:NewRatio=2
-XX:MaxPermSize=192m
-Xms3024M
-Xmx3506m
-server
-javaagent:/usr/local/glassfish4/glassfish/lib/monitor/flashlight-agent.jar
-Djavax.xml.accessExternalSchema=all
-Djavax.net.ssl.trustStore=/usr/local/glassfish4/glassfish/domains/domain1/config/cacerts.jks
-Djdk.corba.allowOutputStreamSubclass=true
-Dfelix.fileinstall.dir=/usr/local/glassfish4/glassfish/modules/autostart/
-Dorg.glassfish.additionalOSGiBundlesToStart=org.apache.felix.shell,org.apache.felix.gogo.runtime,org.apache.felix.gogo.shell,org.apache.felix.gogo.command,org.apache.felix.shell.remote,org.apache.felix.fileinstall
-Dcom.sun.aas.installRoot=/usr/local/glassfish4/glassfish
-Dfelix.fileinstall.poll=5000
-Djava.security.policy=/usr/local/glassfish4/glassfish/domains/domain1/config/server.policy
-Djava.endorsed.dirs=/usr/local/glassfish4/glassfish/modules/endorsed:/usr/local/glassfish4/glassfish/lib/endorsed
-Dfelix.fileinstall.bundles.startTransient=true
-Dosgi.shell.telnet.maxconn=1
-Dfelix.fileinstall.log.level=2
-Dcom.sun.enterprise.config.config_environment_factory_class=com.sun.enterprise.config.serverbeans.AppserverConfigEnvironmentFactory
-Djavax.net.ssl.keyStore=/usr/local/glassfish4/glassfish/domains/domain1/config/keystore.jks
-Djava.security.auth.login.config=/usr/local/glassfish4/glassfish/domains/domain1/config/login.conf
-Dfelix.fileinstall.disableConfigSave=false
-Dfelix.fileinstall.bundles.new.start=true
-Dcom.sun.aas.instanceRoot=/usr/local/glassfish4/glassfish/domains/domain1
-Dosgi.shell.telnet.port=6666
-Dgosh.args=--nointeractive
-Dcom.sun.enterprise.security.httpsOutboundKeyAlias=s1as
-Dosgi.shell.telnet.ip=127.0.0.1
-DANTLR_USE_DIRECT_CLASS_LOADING=true
-Dcom.ctc.wstx.returnNullForDefaultNamespace=true
-Djava.awt.headless=true
-Djava.ext.dirs=/usr/java/jdk1.8.0_151/lib/ext:/usr/java/jdk1.8.0_151/jre/lib/ext:/usr/local/glassfish4/glassfish/domains/domain1/lib/ext
-Djdbc.drivers=org.apache.derby.jdbc.ClientDriver
-Djava.library.path=/usr/local/glassfish4/glassfish/lib:/usr/java/packages/lib/amd64:/usr/lib64:/lib64:/lib:/usr/lib
com.sun.enterprise.glassfish.bootstrap.ASMain
-upgrade
false
-domaindir
/usr/local/glassfish4/glassfish/domains/domain1
-read-stdin
true
-asadmin-args
--host,,,localhost,,,--port,,,4848,,,--secure=false,,,--terse=false,,,--echo=false,,,--interactive=false,,,start-domain,,,--verbose=false,,,--watchdog=false,,,--debug=false,,,--domaindir,,,/usr/local/glassfish4/glassfish/domains,,,domain1
-domainname
domain1
-instancename
server
-type
DAS
-verbose
false
-asadmin-classpath
/usr/local/glassfish4/glassfish/modules/admin-cli.jar
-debug
false
-asadmin-classname
com.sun.enterprise.admin.cli.AdminMain]]

[2018-05-22T18:34:17.922-0500] [] [INFO] [NCLS-GFLAUNCHER-00005] [javax.enterprise.launcher] [tid: _ThreadID=1 _ThreadName=main] [timeMillis: 1527032057922] [levelValue: 800] [[
  JVM invocation command line:
/usr/java/jdk1.8.0_151/bin/java
-cp
/usr/local/glassfish4/glassfish/modules/glassfish.jar
-XX:+UnlockDiagnosticVMOptions
-XX:NewRatio=2
-XX:MaxPermSize=192m
-Xms3024M
-Xmx3506m
-server
-javaagent:/usr/local/glassfish4/glassfish/lib/monitor/flashlight-agent.jar
-Djavax.xml.accessExternalSchema=all
-Djavax.net.ssl.trustStore=/usr/local/glassfish4/glassfish/domains/domain1/config/cacerts.jks
-Djdk.corba.allowOutputStreamSubclass=true
-Dfelix.fileinstall.dir=/usr/local/glassfish4/glassfish/modules/autostart/
-Dorg.glassfish.additionalOSGiBundlesToStart=org.apache.felix.shell,org.apache.felix.gogo.runtime,org.apache.felix.gogo.shell,org.apache.felix.gogo.command,org.apache.felix.shell.remote,org.apache.felix.fileinstall
-Dcom.sun.aas.installRoot=/usr/local/glassfish4/glassfish
-Dfelix.fileinstall.poll=5000
-Djava.security.policy=/usr/local/glassfish4/glassfish/domains/domain1/config/server.policy
-Djava.endorsed.dirs=/usr/local/glassfish4/glassfish/modules/endorsed:/usr/local/glassfish4/glassfish/lib/endorsed
-Dfelix.fileinstall.bundles.startTransient=true
-Dosgi.shell.telnet.maxconn=1
-Dfelix.fileinstall.log.level=2
-Dcom.sun.enterprise.config.config_environment_factory_class=com.sun.enterprise.config.serverbeans.AppserverConfigEnvironmentFactory
-Djavax.net.ssl.keyStore=/usr/local/glassfish4/glassfish/domains/domain1/config/keystore.jks
-Djava.security.auth.login.config=/usr/local/glassfish4/glassfish/domains/domain1/config/login.conf
-Dfelix.fileinstall.disableConfigSave=false
-Dfelix.fileinstall.bundles.new.start=true
-Dcom.sun.aas.instanceRoot=/usr/local/glassfish4/glassfish/domains/domain1
-Dosgi.shell.telnet.port=6666
-Dgosh.args=--nointeractive
-Dcom.sun.enterprise.security.httpsOutboundKeyAlias=s1as
-Dosgi.shell.telnet.ip=127.0.0.1
-DANTLR_USE_DIRECT_CLASS_LOADING=true
-Dcom.ctc.wstx.returnNullForDefaultNamespace=true
-Djava.awt.headless=true
-Djava.ext.dirs=/usr/java/jdk1.8.0_151/lib/ext:/usr/java/jdk1.8.0_151/jre/lib/ext:/usr/local/glassfish4/glassfish/domains/domain1/lib/ext
-Djdbc.drivers=org.apache.derby.jdbc.ClientDriver
-Djava.library.path=/usr/local/glassfish4/glassfish/lib:/usr/java/packages/lib/amd64:/usr/lib64:/lib64:/lib:/usr/lib
com.sun.enterprise.glassfish.bootstrap.ASMain
-upgrade
false
-domaindir
/usr/local/glassfish4/glassfish/domains/domain1
-read-stdin
true
-asadmin-args
--host,,,localhost,,,--port,,,4848,,,--secure=false,,,--terse=false,,,--echo=false,,,--interactive=false,,,start-domain,,,--verbose=false,,,--watchdog=false,,,--debug=false,,,--domaindir,,,/usr/local/glassfish4/glassfish/domains,,,domain1
-domainname
domain1
-instancename
server
-type
DAS
-verbose
false
-asadmin-classpath
/usr/local/glassfish4/glassfish/modules/admin-cli.jar
-debug
false
-asadmin-classname
com.sun.enterprise.admin.cli.AdminMain]]

[2018-05-22T21:49:15.642-0500] [] [INFO] [NCLS-GFLAUNCHER-00005] [javax.enterprise.launcher] [tid: _ThreadID=1 _ThreadName=main] [timeMillis: 1527043755642] [levelValue: 800] [[
  JVM invocation command line:
/usr/java/jdk1.8.0_151/bin/java
-cp
/usr/local/glassfish4/glassfish/modules/glassfish.jar
-XX:+UnlockDiagnosticVMOptions
-XX:NewRatio=2
-XX:MaxPermSize=192m
-Xms3024M
-Xmx3506m
-server
-javaagent:/usr/local/glassfish4/glassfish/lib/monitor/flashlight-agent.jar
-Djavax.xml.accessExternalSchema=all
-Djavax.net.ssl.trustStore=/usr/local/glassfish4/glassfish/domains/domain1/config/cacerts.jks
-Djdk.corba.allowOutputStreamSubclass=true
-Dfelix.fileinstall.dir=/usr/local/glassfish4/glassfish/modules/autostart/
-Dorg.glassfish.additionalOSGiBundlesToStart=org.apache.felix.shell,org.apache.felix.gogo.runtime,org.apache.felix.gogo.shell,org.apache.felix.gogo.command,org.apache.felix.shell.remote,org.apache.felix.fileinstall
-Dcom.sun.aas.installRoot=/usr/local/glassfish4/glassfish
-Dfelix.fileinstall.poll=5000
-Djava.security.policy=/usr/local/glassfish4/glassfish/domains/domain1/config/server.policy
-Djava.endorsed.dirs=/usr/local/glassfish4/glassfish/modules/endorsed:/usr/local/glassfish4/glassfish/lib/endorsed
-Dfelix.fileinstall.bundles.startTransient=true
-Dosgi.shell.telnet.maxconn=1
-Dfelix.fileinstall.log.level=2
-Dcom.sun.enterprise.config.config_environment_factory_class=com.sun.enterprise.config.serverbeans.AppserverConfigEnvironmentFactory
-Djavax.net.ssl.keyStore=/usr/local/glassfish4/glassfish/domains/domain1/config/keystore.jks
-Djava.security.auth.login.config=/usr/local/glassfish4/glassfish/domains/domain1/config/login.conf
-Dfelix.fileinstall.disableConfigSave=false
-Dfelix.fileinstall.bundles.new.start=true
-Dcom.sun.aas.instanceRoot=/usr/local/glassfish4/glassfish/domains/domain1
-Dosgi.shell.telnet.port=6666
-Dgosh.args=--nointeractive
-Dcom.sun.enterprise.security.httpsOutboundKeyAlias=s1as
-Dosgi.shell.telnet.ip=127.0.0.1
-DANTLR_USE_DIRECT_CLASS_LOADING=true
-Dcom.ctc.wstx.returnNullForDefaultNamespace=true
-Djava.awt.headless=true
-Djava.ext.dirs=/usr/java/jdk1.8.0_151/lib/ext:/usr/java/jdk1.8.0_151/jre/lib/ext:/usr/local/glassfish4/glassfish/domains/domain1/lib/ext
-Djdbc.drivers=org.apache.derby.jdbc.ClientDriver
-Djava.library.path=/usr/local/glassfish4/glassfish/lib:/usr/java/packages/lib/amd64:/usr/lib64:/lib64:/lib:/usr/lib
com.sun.enterprise.glassfish.bootstrap.ASMain
-upgrade
false
-domaindir
/usr/local/glassfish4/glassfish/domains/domain1
-read-stdin
true
-asadmin-args
--host,,,localhost,,,--port,,,4848,,,--secure=false,,,--terse=false,,,--echo=false,,,--interactive=false,,,start-domain,,,--verbose=false,,,--watchdog=false,,,--debug=false,,,--domaindir,,,/usr/local/glassfish4/glassfish/domains,,,domain1
-domainname
domain1
-instancename
server
-type
DAS
-verbose
false
-asadmin-classpath
/usr/local/glassfish4/glassfish/modules/admin-cli.jar
-debug
false
-asadmin-classname
com.sun.enterprise.admin.cli.AdminMain]]

[2018-06-14T20:03:18.736-0500] [] [INFO] [NCLS-GFLAUNCHER-00005] [javax.enterprise.launcher] [tid: _ThreadID=1 _ThreadName=main] [timeMillis: 1529024598736] [levelValue: 800] [[
  JVM invocation command line:
/usr/java/jdk1.8.0_151/bin/java
-cp
/usr/local/glassfish4/glassfish/modules/glassfish.jar
-XX:+UnlockDiagnosticVMOptions
-XX:NewRatio=2
-XX:MaxPermSize=192m
-Xms3024M
-Xmx3506m
-server
-javaagent:/usr/local/glassfish4/glassfish/lib/monitor/flashlight-agent.jar
-Djavax.xml.accessExternalSchema=all
-Djavax.net.ssl.trustStore=/usr/local/glassfish4/glassfish/domains/domain1/config/cacerts.jks
-Djdk.corba.allowOutputStreamSubclass=true
-Dfelix.fileinstall.dir=/usr/local/glassfish4/glassfish/modules/autostart/
-Dorg.glassfish.additionalOSGiBundlesToStart=org.apache.felix.shell,org.apache.felix.gogo.runtime,org.apache.felix.gogo.shell,org.apache.felix.gogo.command,org.apache.felix.shell.remote,org.apache.felix.fileinstall
-Dcom.sun.aas.installRoot=/usr/local/glassfish4/glassfish
-Dfelix.fileinstall.poll=5000
-Djava.security.policy=/usr/local/glassfish4/glassfish/domains/domain1/config/server.policy
-Djava.endorsed.dirs=/usr/local/glassfish4/glassfish/modules/endorsed:/usr/local/glassfish4/glassfish/lib/endorsed
-Dfelix.fileinstall.bundles.startTransient=true
-Dosgi.shell.telnet.maxconn=1
-Dfelix.fileinstall.log.level=2
-Dcom.sun.enterprise.config.config_environment_factory_class=com.sun.enterprise.config.serverbeans.AppserverConfigEnvironmentFactory
-Djavax.net.ssl.keyStore=/usr/local/glassfish4/glassfish/domains/domain1/config/keystore.jks
-Djava.security.auth.login.config=/usr/local/glassfish4/glassfish/domains/domain1/config/login.conf
-Dfelix.fileinstall.disableConfigSave=false
-Dfelix.fileinstall.bundles.new.start=true
-Dcom.sun.aas.instanceRoot=/usr/local/glassfish4/glassfish/domains/domain1
-Dosgi.shell.telnet.port=6666
-Dgosh.args=--nointeractive
-Dcom.sun.enterprise.security.httpsOutboundKeyAlias=s1as
-Dosgi.shell.telnet.ip=127.0.0.1
-DANTLR_USE_DIRECT_CLASS_LOADING=true
-Dcom.ctc.wstx.returnNullForDefaultNamespace=true
-Djava.awt.headless=true
-Djava.ext.dirs=/usr/java/jdk1.8.0_151/lib/ext:/usr/java/jdk1.8.0_151/jre/lib/ext:/usr/local/glassfish4/glassfish/domains/domain1/lib/ext
-Djdbc.drivers=org.apache.derby.jdbc.ClientDriver
-Djava.library.path=/usr/local/glassfish4/glassfish/lib:/usr/java/packages/lib/amd64:/usr/lib64:/lib64:/lib:/usr/lib
com.sun.enterprise.glassfish.bootstrap.ASMain
-upgrade
false
-domaindir
/usr/local/glassfish4/glassfish/domains/domain1
-read-stdin
true
-asadmin-args
--host,,,localhost,,,--port,,,4848,,,--secure=false,,,--terse=false,,,--echo=false,,,--interactive=false,,,start-domain,,,--verbose=false,,,--watchdog=false,,,--debug=false,,,--domaindir,,,/usr/local/glassfish4/glassfish/domains,,,domain1
-domainname
domain1
-instancename
server
-type
DAS
-verbose
false
-asadmin-classpath
/usr/local/glassfish4/glassfish/modules/admin-cli.jar
-debug
false
-asadmin-classname
com.sun.enterprise.admin.cli.AdminMain]]

[2018-06-19T08:50:38.360-0500] [] [INFO] [NCLS-GFLAUNCHER-00005] [javax.enterprise.launcher] [tid: _ThreadID=1 _ThreadName=main] [timeMillis: 1529416238360] [levelValue: 800] [[
  JVM invocation command line:
/usr/java/jdk1.8.0_151/bin/java
-cp
/usr/local/glassfish4/glassfish/modules/glassfish.jar
-XX:+UnlockDiagnosticVMOptions
-XX:NewRatio=2
-XX:MaxPermSize=192m
-Xms3024M
-Xmx3506m
-server
-javaagent:/usr/local/glassfish4/glassfish/lib/monitor/flashlight-agent.jar
-Djavax.xml.accessExternalSchema=all
-Djavax.net.ssl.trustStore=/usr/local/glassfish4/glassfish/domains/domain1/config/cacerts.jks
-Djdk.corba.allowOutputStreamSubclass=true
-Dfelix.fileinstall.dir=/usr/local/glassfish4/glassfish/modules/autostart/
-Dorg.glassfish.additionalOSGiBundlesToStart=org.apache.felix.shell,org.apache.felix.gogo.runtime,org.apache.felix.gogo.shell,org.apache.felix.gogo.command,org.apache.felix.shell.remote,org.apache.felix.fileinstall
-Dcom.sun.aas.installRoot=/usr/local/glassfish4/glassfish
-Dfelix.fileinstall.poll=5000
-Djava.security.policy=/usr/local/glassfish4/glassfish/domains/domain1/config/server.policy
-Djava.endorsed.dirs=/usr/local/glassfish4/glassfish/modules/endorsed:/usr/local/glassfish4/glassfish/lib/endorsed
-Dfelix.fileinstall.bundles.startTransient=true
-Dosgi.shell.telnet.maxconn=1
-Dfelix.fileinstall.log.level=2
-Dcom.sun.enterprise.config.config_environment_factory_class=com.sun.enterprise.config.serverbeans.AppserverConfigEnvironmentFactory
-Djavax.net.ssl.keyStore=/usr/local/glassfish4/glassfish/domains/domain1/config/keystore.jks
-Djava.security.auth.login.config=/usr/local/glassfish4/glassfish/domains/domain1/config/login.conf
-Dfelix.fileinstall.disableConfigSave=false
-Dfelix.fileinstall.bundles.new.start=true
-Dcom.sun.aas.instanceRoot=/usr/local/glassfish4/glassfish/domains/domain1
-Dosgi.shell.telnet.port=6666
-Dgosh.args=--nointeractive
-Dcom.sun.enterprise.security.httpsOutboundKeyAlias=s1as
-Dosgi.shell.telnet.ip=127.0.0.1
-DANTLR_USE_DIRECT_CLASS_LOADING=true
-Dcom.ctc.wstx.returnNullForDefaultNamespace=true
-Djava.awt.headless=true
-Djava.ext.dirs=/usr/java/jdk1.8.0_151/lib/ext:/usr/java/jdk1.8.0_151/jre/lib/ext:/usr/local/glassfish4/glassfish/domains/domain1/lib/ext
-Djdbc.drivers=org.apache.derby.jdbc.ClientDriver
-Djava.library.path=/usr/local/glassfish4/glassfish/lib:/usr/java/packages/lib/amd64:/usr/lib64:/lib64:/lib:/usr/lib
com.sun.enterprise.glassfish.bootstrap.ASMain
-upgrade
false
-domaindir
/usr/local/glassfish4/glassfish/domains/domain1
-read-stdin
true
-asadmin-args
--host,,,localhost,,,--port,,,4848,,,--secure=false,,,--terse=false,,,--echo=false,,,--interactive=false,,,start-domain,,,--verbose=false,,,--watchdog=false,,,--debug=false,,,--domaindir,,,/usr/local/glassfish4/glassfish/domains,,,domain1
-domainname
domain1
-instancename
server
-type
DAS
-verbose
false
-asadmin-classpath
/usr/local/glassfish4/glassfish/modules/admin-cli.jar
-debug
false
-asadmin-classname
com.sun.enterprise.admin.cli.AdminMain]]

